{
	"Player 0":	{
		"Name":	"YOU",
		"Score":	10
	},
	"Player 1":	{
		"Name":	"YOU",
		"Score":	59.125000
	},
	"Player 2":	{
		"Name":	"YOU",
		"Score":	69.250000
	},
	"Player 3":	{
		"Name":	"...",
		"Score":	9999
	},
	"Player 4":	{
		"Name":	"...",
		"Score":	9999
	}
}