# Blender v2.78 (sub 0) OBJ File: 'DummyPillar.blend'
# www.blender.org
v 0.000000 0.000000 -1.000000
v 0.000000 0.000000 1.000000
v 0.000000 2.750000 -1.000000
v 0.000000 2.750000 1.000000
v 1.052379 2.540669 -1.000000
v 1.052379 2.540669 1.000000
v 1.944544 1.944544 -1.000000
v 1.944544 1.944544 1.000000
v 2.540669 1.052379 -1.000000
v 2.540669 1.052379 1.000000
v 2.750000 -0.000000 -1.000000
v 2.750000 -0.000000 1.000000
v 2.540669 -1.052380 -1.000000
v 2.540669 -1.052380 1.000000
v 1.944544 -1.944544 -1.000000
v 1.944544 -1.944544 1.000000
v 1.052380 -2.540669 -1.000000
v 1.052380 -2.540669 1.000000
v 0.000000 -2.750000 -1.000000
v 0.000000 -2.750000 1.000000
v -1.052379 -2.540669 -1.000000
v -1.052379 -2.540669 1.000000
v -1.944543 -1.944544 -1.000000
v -1.944543 -1.944544 1.000000
v -2.540669 -1.052380 -1.000000
v -2.540669 -1.052380 1.000000
v -2.750000 0.000000 -1.000000
v -2.750000 0.000000 1.000000
v -2.540668 1.052380 -1.000000
v -2.540668 1.052380 1.000000
v -1.944543 1.944544 -1.000000
v -1.944543 1.944544 1.000000
v -1.052378 2.540669 -1.000000
v -1.052378 2.540669 1.000000
v 0.000000 2.750000 -1.000000
v 1.052379 2.540669 -1.000000
v 1.052379 2.540669 1.000000
v 0.000000 2.750000 1.000000
v 1.944544 1.944544 -1.000000
v 1.944544 1.944544 1.000000
v 2.540669 1.052379 -1.000000
v 2.540669 1.052379 1.000000
v 2.750000 -0.000000 -1.000000
v 2.750000 -0.000000 1.000000
v 2.540669 -1.052380 -1.000000
v 2.540669 -1.052380 1.000000
v 1.944544 -1.944544 -1.000000
v 1.944544 -1.944544 1.000000
v 1.052380 -2.540669 -1.000000
v 1.052380 -2.540669 1.000000
v 0.000000 -2.750000 -1.000000
v 0.000000 -2.750000 1.000000
v -1.052379 -2.540669 -1.000000
v -1.052379 -2.540669 1.000000
v -1.944543 -1.944544 -1.000000
v -1.944543 -1.944544 1.000000
v -2.540669 -1.052380 -1.000000
v -2.540669 -1.052380 1.000000
v -2.750000 0.000000 -1.000000
v -2.750000 0.000000 1.000000
v -2.540668 1.052380 -1.000000
v -2.540668 1.052380 1.000000
v -1.944543 1.944544 -1.000000
v -1.944543 1.944544 1.000000
v -1.052378 2.540669 -1.000000
v -1.052378 2.540669 1.000000
vt 0.5000 0.5000
vt 0.5000 1.3381
vt 0.8207 1.2743
vt 0.5000 0.5000
vt 0.8207 1.2743
vt 0.5000 1.3381
vt 1.0926 1.0926
vt 1.0926 1.0926
vt 1.2743 0.8207
vt 1.2743 0.8207
vt 1.3381 0.5000
vt 1.3381 0.5000
vt 1.2743 0.1793
vt 1.2743 0.1793
vt 1.0926 -0.0926
vt 1.0926 -0.0926
vt 0.8207 -0.2743
vt 0.8207 -0.2743
vt 0.5000 -0.3381
vt 0.5000 -0.3381
vt 0.1793 -0.2743
vt 0.1793 -0.2743
vt -0.0926 -0.0926
vt -0.0926 -0.0926
vt -0.2743 0.1793
vt -0.2743 0.1793
vt -0.3381 0.5000
vt -0.3381 0.5000
vt -0.2743 0.8207
vt -0.2743 0.8207
vt -0.0926 1.0926
vt -0.0926 1.0926
vt 0.1793 1.2743
vt 0.1793 1.2743
vt 2.9998 0.7912
vt 2.6874 0.2088
vt 2.9998 0.2088
vt 2.6874 0.7912
vt 2.3749 0.2088
vt 2.3749 0.7912
vt 2.0624 0.2088
vt 2.0624 0.7912
vt 1.7499 0.2088
vt 1.7499 0.7912
vt 1.4374 0.2088
vt 1.4374 0.7912
vt 1.1250 0.2088
vt 1.1250 0.7912
vt 0.8125 0.2088
vt 0.8125 0.7912
vt 0.5000 0.2088
vt 0.5000 0.7912
vt 0.1875 0.2088
vt 0.1875 0.7912
vt -0.1250 0.2088
vt -0.1250 0.7912
vt -0.4374 0.2088
vt -0.4374 0.7912
vt -0.7499 0.2088
vt -0.7499 0.7912
vt -1.0624 0.2088
vt -1.0624 0.7912
vt -1.3749 0.2088
vt -1.3749 0.7912
vt -1.6874 0.2088
vt -1.6874 0.7912
vt -1.9998 0.2088
vt -1.9998 0.7912
vn 0.0000 0.0000 -1.0000
vn 0.0000 0.0000 1.0000
vn 0.0000 1.0000 0.0000
vn 0.3827 0.9239 0.0000
vn 0.7071 0.7071 0.0000
vn 0.9239 0.3827 0.0000
vn 1.0000 0.0000 0.0000
vn 0.9239 -0.3827 0.0000
vn 0.7071 -0.7071 0.0000
vn 0.3827 -0.9239 0.0000
vn 0.0000 -1.0000 0.0000
vn -0.3827 -0.9239 0.0000
vn -0.7071 -0.7071 0.0000
vn -0.9239 -0.3827 0.0000
vn -1.0000 0.0000 0.0000
vn -0.9239 0.3827 0.0000
vn -0.7071 0.7071 0.0000
vn -0.3827 0.9239 0.0000
s off
f 1/1/1 35/2/1 36/3/1
f 2/4/2 37/5/2 38/6/2
f 1/1/1 36/3/1 39/7/1
f 2/4/2 40/8/2 37/5/2
f 1/1/1 39/7/1 41/9/1
f 2/4/2 42/10/2 40/8/2
f 1/1/1 41/9/1 43/11/1
f 2/4/2 44/12/2 42/10/2
f 1/1/1 43/11/1 45/13/1
f 2/4/2 46/14/2 44/12/2
f 1/1/1 45/13/1 47/15/1
f 2/4/2 48/16/2 46/14/2
f 1/1/1 47/15/1 49/17/1
f 2/4/2 50/18/2 48/16/2
f 1/1/1 49/17/1 51/19/1
f 2/4/2 52/20/2 50/18/2
f 1/1/1 51/19/1 53/21/1
f 2/4/2 54/22/2 52/20/2
f 1/1/1 53/21/1 55/23/1
f 2/4/2 56/24/2 54/22/2
f 1/1/1 55/23/1 57/25/1
f 2/4/2 58/26/2 56/24/2
f 1/1/1 57/25/1 59/27/1
f 2/4/2 60/28/2 58/26/2
f 1/1/1 59/27/1 61/29/1
f 2/4/2 62/30/2 60/28/2
f 1/1/1 61/29/1 63/31/1
f 2/4/2 64/32/2 62/30/2
f 1/1/1 63/31/1 65/33/1
f 2/4/2 66/34/2 64/32/2
f 1/1/1 65/33/1 35/2/1
f 2/4/2 38/6/2 66/34/2
s 1
f 4/35/3 5/36/4 3/37/3
f 6/38/4 7/39/5 5/36/4
f 8/40/5 9/41/6 7/39/5
f 10/42/6 11/43/7 9/41/6
f 12/44/7 13/45/8 11/43/7
f 14/46/8 15/47/9 13/45/8
f 16/48/9 17/49/10 15/47/9
f 18/50/10 19/51/11 17/49/10
f 20/52/11 21/53/12 19/51/11
f 22/54/12 23/55/13 21/53/12
f 24/56/13 25/57/14 23/55/13
f 26/58/14 27/59/15 25/57/14
f 28/60/15 29/61/16 27/59/15
f 30/62/16 31/63/17 29/61/16
f 32/64/17 33/65/18 31/63/17
f 34/66/18 3/67/3 33/65/18
f 4/35/3 6/38/4 5/36/4
f 6/38/4 8/40/5 7/39/5
f 8/40/5 10/42/6 9/41/6
f 10/42/6 12/44/7 11/43/7
f 12/44/7 14/46/8 13/45/8
f 14/46/8 16/48/9 15/47/9
f 16/48/9 18/50/10 17/49/10
f 18/50/10 20/52/11 19/51/11
f 20/52/11 22/54/12 21/53/12
f 22/54/12 24/56/13 23/55/13
f 24/56/13 26/58/14 25/57/14
f 26/58/14 28/60/15 27/59/15
f 28/60/15 30/62/16 29/61/16
f 30/62/16 32/64/17 31/63/17
f 32/64/17 34/66/18 33/65/18
f 34/66/18 4/68/3 3/67/3
