# Blender v2.78 (sub 0) OBJ File: 'world.blend'
# www.blender.org
v -1.000001 -17.951847 0.000000
v 0.999999 -17.951847 0.000000
v 0.999999 -18.151848 0.000000
v 0.999998 -20.151848 0.000000
v -1.000001 -18.151848 0.000000
v -1.000001 -10.151846 0.000000
v 0.999999 -10.151846 0.000000
v 0.588101 -9.951845 0.000000
v -0.588105 -9.951846 0.000000
v 0.588101 -10.151845 2.200000
v -0.588105 -10.151846 2.200000
v 0.588102 -10.151846 0.000000
v -0.588105 -17.951847 0.000000
v -0.588105 -18.151848 0.000000
v -0.588105 -20.151848 0.000000
v -0.588105 -10.151846 0.000000
v 0.999999 -20.151848 2.200000
v -1.000002 -20.151848 2.200000
v -1.000001 -20.151848 0.000000
v -1.000002 -10.151845 2.200000
v 0.999999 -18.151848 2.200000
v -1.000002 -18.151848 2.200000
v 0.999999 -17.951847 2.200000
v -1.000002 -17.951847 2.200000
v 0.999999 -10.151845 2.200000
v 0.588102 -18.151848 0.000000
v 0.588102 -17.951847 0.000000
v 0.588102 -17.951847 2.200000
v 0.588102 -18.151848 2.200000
v -0.588106 -18.151848 2.200000
v -0.588106 -17.951847 2.200000
v 0.588102 -20.151848 2.200000
v 0.588101 -20.151848 0.000000
v -0.588105 -20.151848 2.200000
v 0.588101 -9.951845 2.020000
v -0.588105 -9.951846 2.020000
v -0.588106 -17.951847 2.020000
v -0.588105 -10.151846 2.020000
v 0.588101 -10.151845 2.020000
v -1.000002 -20.151848 2.020000
v 0.999999 -10.151845 2.020000
v 0.999999 -17.951847 2.020000
v 0.999999 -18.151848 2.020000
v 0.999999 -20.151848 2.020000
v -1.000002 -18.151848 2.020000
v -1.000002 -17.951847 2.020000
v -1.000002 -10.151845 2.020000
v 0.588102 -17.951847 2.020000
v 0.588102 -18.151848 2.020000
v -0.588106 -18.151848 2.020000
v 0.588102 -20.151848 2.020000
v -0.588105 -20.151848 2.020000
v -0.980171 9.951847 0.000000
v -0.980171 9.951847 16.000000
v 0.980172 9.951847 0.000000
v 0.980172 9.951847 16.000000
v 2.902847 9.569404 0.000000
v 2.902847 9.569404 16.000000
v 4.713967 8.819213 0.000000
v 4.713967 8.819213 16.000000
v 6.343933 7.730104 0.000000
v 6.343933 7.730104 16.000000
v 7.730105 6.343932 0.000000
v 7.730105 6.343932 16.000000
v 8.819213 4.713967 0.000000
v 8.819213 4.713967 16.000000
v 9.569403 2.902847 0.000000
v 9.569403 2.902847 16.000000
v 9.951847 0.980172 0.000000
v 9.951847 0.980172 16.000000
v 9.951847 -0.980170 0.000000
v 9.951847 -0.980170 16.000000
v 9.569404 -2.902845 0.000000
v 9.569404 -2.902845 16.000000
v 8.819214 -4.713966 0.000000
v 8.819214 -4.713966 16.000000
v 7.730105 -6.343933 0.000000
v 7.730105 -6.343933 16.000000
v 6.343932 -7.730105 0.000000
v 6.343932 -7.730105 16.000000
v 4.713966 -8.819214 0.000000
v 4.713966 -8.819214 16.000000
v 2.902845 -9.569404 0.000000
v 2.902845 -9.569404 16.000000
v 0.980168 -9.951847 0.000000
v 0.980168 -9.951847 16.000000
v -0.980175 -9.951846 0.000000
v -0.980175 -9.951846 16.000000
v -2.902851 -9.569402 0.000000
v -2.902851 -9.569402 16.000000
v -4.713972 -8.819211 0.000000
v -4.713972 -8.819211 16.000000
v -6.343938 -7.730101 0.000000
v -6.343938 -7.730101 16.000000
v -7.730109 -6.343927 0.000000
v -7.730109 -6.343927 16.000000
v -8.819216 -4.713960 0.000000
v -8.819216 -4.713960 16.000000
v -9.569406 -2.902838 0.000000
v -9.569406 -2.902838 16.000000
v -9.951848 -0.980162 0.000000
v -9.951848 -0.980162 16.000000
v -9.951846 0.980182 0.000000
v -9.951846 0.980182 16.000000
v -9.569400 2.902858 0.000000
v -9.569400 2.902858 16.000000
v -8.819207 4.713978 0.000000
v -8.819207 4.713978 16.000000
v -7.730096 6.343943 0.000000
v -7.730096 6.343943 16.000000
v -6.343923 7.730114 0.000000
v -6.343923 7.730114 16.000000
v -4.713954 8.819220 0.000000
v -4.713954 8.819220 16.000000
v -2.902832 9.569407 0.000000
v -2.902832 9.569407 16.000000
v 0.000000 0.000021 16.000000
v -0.980176 -8.819212 0.000000
v 0.980169 -8.819213 0.000000
v 0.588101 -9.211282 0.000000
v 0.980171 8.819216 0.000000
v 0.980171 7.730109 0.000000
v 0.980171 6.343937 0.000000
v 0.980171 4.713973 0.000000
v 0.980171 2.902851 0.000000
v 0.980170 0.980175 0.000000
v 0.980170 -0.980169 0.000000
v 0.980170 -2.902843 0.000000
v 0.980170 -4.713967 0.000000
v 0.980170 -6.343933 0.000000
v 0.980169 -7.730103 0.000000
v -0.980175 -7.730103 0.000000
v -0.980175 -6.343930 0.000000
v -0.980175 -4.713963 0.000000
v -0.980174 -2.902842 0.000000
v -0.980174 -0.980166 0.000000
v -0.980173 0.980178 0.000000
v -0.980173 2.902853 0.000000
v -0.980172 4.713974 0.000000
v -0.980172 6.343938 0.000000
v -0.980172 7.730110 0.000000
v -0.980171 8.819218 0.000000
v -0.588105 -9.211283 0.000000
v -0.588105 -17.951847 0.000000
v -0.588105 -17.951847 0.000000
v -0.588105 -17.951847 0.000000
v -0.588105 -17.951847 0.000000
v -1.000001 -17.951847 0.000000
v -1.000001 -17.951847 0.000000
v 0.999999 -18.151848 0.000000
v 0.999999 -18.151848 0.000000
v 0.999998 -20.151848 0.000000
v 0.999998 -20.151848 0.000000
v -0.588105 -18.151848 0.000000
v -0.588105 -18.151848 0.000000
v -0.588105 -18.151848 0.000000
v -0.588105 -18.151848 0.000000
v -1.000001 -18.151848 0.000000
v -1.000001 -18.151848 0.000000
v -0.588105 -10.151846 0.000000
v -0.588105 -10.151846 0.000000
v -0.588105 -10.151846 0.000000
v -0.588105 -10.151846 0.000000
v -1.000001 -10.151846 0.000000
v -1.000001 -10.151846 0.000000
v 0.999999 -17.951847 0.000000
v 0.999999 -17.951847 0.000000
v 0.999999 -10.151846 0.000000
v 0.999999 -10.151846 0.000000
v 0.588101 -9.951845 2.020000
v 0.588101 -9.951845 2.020000
v 0.588101 -9.951845 0.000000
v 0.588101 -9.951845 0.000000
v 0.588101 -9.951845 0.000000
v -0.588105 -9.951846 2.020000
v -0.588105 -9.951846 2.020000
v -0.588105 -9.951846 0.000000
v -0.588105 -9.951846 0.000000
v -0.588105 -9.951846 0.000000
v 0.588101 -10.151845 2.200000
v 0.588101 -10.151845 2.200000
v 0.588101 -10.151845 2.200000
v 0.588102 -17.951847 2.200000
v 0.588102 -17.951847 2.200000
v 0.588102 -17.951847 2.200000
v 0.588102 -10.151846 0.000000
v 0.588102 -10.151846 0.000000
v 0.588102 -10.151846 0.000000
v 0.588102 -10.151846 0.000000
v 0.588102 -17.951847 0.000000
v 0.588102 -17.951847 0.000000
v 0.588102 -17.951847 0.000000
v 0.588102 -17.951847 0.000000
v -0.588106 -17.951847 2.020000
v -0.588106 -17.951847 2.020000
v -0.588106 -17.951847 2.020000
v -0.588106 -17.951847 2.020000
v -0.588105 -20.151848 0.000000
v -0.588105 -20.151848 0.000000
v -0.588105 -20.151848 0.000000
v -0.588105 -10.151846 2.020000
v -0.588105 -10.151846 2.020000
v -0.588105 -10.151846 2.020000
v -0.588105 -10.151846 2.020000
v 0.588101 -10.151845 2.020000
v 0.588101 -10.151845 2.020000
v 0.588101 -10.151845 2.020000
v 0.588101 -10.151845 2.020000
v -1.000002 -20.151848 2.020000
v -1.000002 -20.151848 2.020000
v -1.000002 -20.151848 2.020000
v -1.000001 -20.151848 0.000000
v -1.000001 -20.151848 0.000000
v 0.588102 -20.151848 2.200000
v 0.588102 -20.151848 2.200000
v 0.588102 -20.151848 2.200000
v 0.999999 -20.151848 2.200000
v 0.999999 -20.151848 2.200000
v 0.588102 -18.151848 2.200000
v 0.588102 -18.151848 2.200000
v 0.588102 -18.151848 2.200000
v -0.588106 -18.151848 2.200000
v -0.588106 -18.151848 2.200000
v -0.588106 -18.151848 2.200000
v 0.999999 -18.151848 2.200000
v 0.999999 -18.151848 2.200000
v -1.000002 -20.151848 2.200000
v -1.000002 -20.151848 2.200000
v -1.000002 -18.151848 2.200000
v -1.000002 -18.151848 2.200000
v 0.999999 -10.151845 2.200000
v 0.999999 -10.151845 2.200000
v 0.999999 -17.951847 2.200000
v 0.999999 -17.951847 2.200000
v 0.999999 -10.151845 2.020000
v 0.999999 -10.151845 2.020000
v 0.999999 -10.151845 2.020000
v 0.999999 -17.951847 2.020000
v 0.999999 -17.951847 2.020000
v 0.999999 -17.951847 2.020000
v 0.999999 -18.151848 2.020000
v 0.999999 -18.151848 2.020000
v 0.999999 -18.151848 2.020000
v 0.999999 -20.151848 2.020000
v 0.999999 -20.151848 2.020000
v 0.999999 -20.151848 2.020000
v -1.000002 -18.151848 2.020000
v -1.000002 -18.151848 2.020000
v -1.000002 -18.151848 2.020000
v -1.000002 -17.951847 2.020000
v -1.000002 -17.951847 2.020000
v -1.000002 -17.951847 2.020000
v -1.000002 -10.151845 2.020000
v -1.000002 -10.151845 2.020000
v -1.000002 -10.151845 2.020000
v -1.000002 -10.151845 2.200000
v -1.000002 -10.151845 2.200000
v -1.000002 -17.951847 2.200000
v -1.000002 -17.951847 2.200000
v -0.588105 -10.151846 2.200000
v -0.588105 -10.151846 2.200000
v -0.588105 -10.151846 2.200000
v 0.588102 -18.151848 0.000000
v 0.588102 -18.151848 0.000000
v 0.588102 -18.151848 0.000000
v 0.588102 -18.151848 0.000000
v -0.588106 -17.951847 2.200000
v -0.588106 -17.951847 2.200000
v -0.588106 -17.951847 2.200000
v 0.588102 -17.951847 2.020000
v 0.588102 -17.951847 2.020000
v 0.588102 -17.951847 2.020000
v 0.588102 -17.951847 2.020000
v 0.588102 -18.151848 2.020000
v 0.588102 -18.151848 2.020000
v 0.588102 -18.151848 2.020000
v 0.588102 -18.151848 2.020000
v -0.588106 -18.151848 2.020000
v -0.588106 -18.151848 2.020000
v -0.588106 -18.151848 2.020000
v -0.588106 -18.151848 2.020000
v -0.588105 -20.151848 2.200000
v -0.588105 -20.151848 2.200000
v -0.588105 -20.151848 2.200000
v 0.588101 -20.151848 0.000000
v 0.588101 -20.151848 0.000000
v 0.588101 -20.151848 0.000000
v 0.588102 -20.151848 2.020000
v 0.588102 -20.151848 2.020000
v 0.588102 -20.151848 2.020000
v -0.588105 -20.151848 2.020000
v -0.588105 -20.151848 2.020000
v -0.588105 -20.151848 2.020000
v -0.980171 9.951847 0.000000
v 0.980172 9.951847 0.000000
v 0.980172 9.951847 16.000000
v -0.980171 9.951847 16.000000
v 2.902847 9.569404 0.000000
v 2.902847 9.569404 16.000000
v 4.713967 8.819213 0.000000
v 4.713967 8.819213 16.000000
v 6.343933 7.730104 0.000000
v 6.343933 7.730104 16.000000
v 7.730105 6.343932 0.000000
v 7.730105 6.343932 16.000000
v 8.819213 4.713967 0.000000
v 8.819213 4.713967 16.000000
v 9.569403 2.902847 0.000000
v 9.569403 2.902847 16.000000
v 9.951847 0.980172 0.000000
v 9.951847 0.980172 16.000000
v 9.951847 -0.980170 0.000000
v 9.951847 -0.980170 16.000000
v 9.569404 -2.902845 0.000000
v 9.569404 -2.902845 16.000000
v 8.819214 -4.713966 0.000000
v 8.819214 -4.713966 16.000000
v 7.730105 -6.343933 0.000000
v 7.730105 -6.343933 16.000000
v 6.343932 -7.730105 0.000000
v 6.343932 -7.730105 16.000000
v 4.713966 -8.819214 0.000000
v 4.713966 -8.819214 16.000000
v 2.902845 -9.569404 0.000000
v 2.902845 -9.569404 16.000000
v 0.980168 -9.951847 0.000000
v 0.980168 -9.951847 16.000000
v -0.980175 -9.951846 16.000000
v -0.980175 -9.951846 0.000000
v -2.902851 -9.569402 0.000000
v -2.902851 -9.569402 16.000000
v -4.713972 -8.819211 0.000000
v -4.713972 -8.819211 16.000000
v -6.343938 -7.730101 0.000000
v -6.343938 -7.730101 16.000000
v -7.730109 -6.343927 0.000000
v -7.730109 -6.343927 16.000000
v -8.819216 -4.713960 0.000000
v -8.819216 -4.713960 16.000000
v -9.569406 -2.902838 0.000000
v -9.569406 -2.902838 16.000000
v -9.951848 -0.980162 0.000000
v -9.951848 -0.980162 16.000000
v -9.951846 0.980182 0.000000
v -9.951846 0.980182 16.000000
v -9.569400 2.902858 0.000000
v -9.569400 2.902858 16.000000
v -8.819207 4.713978 0.000000
v -8.819207 4.713978 16.000000
v -7.730096 6.343943 0.000000
v -7.730096 6.343943 16.000000
v -6.343923 7.730114 0.000000
v -6.343923 7.730114 16.000000
v -4.713954 8.819220 0.000000
v -4.713954 8.819220 16.000000
v -2.902832 9.569407 0.000000
v -2.902832 9.569407 16.000000
vt 0.3604 0.5306
vt 0.4527 0.0824
vt 0.4527 0.5306
vt 0.8086 0.5754
vt 0.7163 2.3233
vt 0.7163 0.5754
vt 0.7163 0.5754
vt 0.4527 2.3233
vt 0.4527 0.5754
vt 0.7163 0.5754
vt 0.4527 0.5306
vt 0.7163 0.5306
vt 0.4527 0.5306
vt 0.7163 0.5754
vt 0.4527 0.5754
vt 0.7163 0.5306
vt 0.8086 0.0824
vt 0.8086 0.5306
vt 0.9009 0.5754
vt 0.8086 2.3233
vt 0.8086 0.5754
vt 0.4527 0.5306
vt 0.7163 0.0824
vt 0.7163 0.5306
vt 0.2126 -1.2120
vt -0.1309 1.5920
vt -0.1309 -1.2120
vt 0.5562 -1.2120
vt 0.2126 1.5920
vt 0.8997 -1.2120
vt 0.5562 1.5920
vt 1.2433 -1.2120
vt 0.8997 1.5920
vt 1.5868 -1.2120
vt 1.2433 1.5920
vt 1.9304 -1.2120
vt 1.5868 1.5920
vt 2.2740 -1.2120
vt 1.9304 1.5920
vt 2.6175 -1.2120
vt 2.2739 1.5920
vt 2.9611 -1.2120
vt 2.6175 1.5920
vt 3.3046 -1.2120
vt 2.9611 1.5920
vt 3.6482 -1.2120
vt 3.3046 1.5920
vt 3.9917 -1.2120
vt 3.6482 1.5920
vt 4.3353 -1.2120
vt 3.9917 1.5920
vt 4.6788 -1.2120
vt 4.3353 1.5920
vt 5.0224 -1.2120
vt 4.6788 1.5920
vt 5.3659 -1.2120
vt 5.0224 1.5920
vt -4.9406 -1.2120
vt -5.2842 1.5920
vt -5.2842 -1.2120
vt -4.5971 -1.2120
vt -4.9406 1.5920
vt -4.2535 -1.2120
vt -4.5971 1.5920
vt -3.9100 -1.2120
vt -4.2535 1.5920
vt -3.5664 -1.2120
vt -3.9100 1.5920
vt -3.2229 -1.2120
vt -3.5664 1.5920
vt -2.8793 -1.2120
vt -3.2229 1.5920
vt -2.5358 -1.2120
vt -2.8793 1.5920
vt -2.1922 -1.2120
vt -2.5358 1.5920
vt -1.8487 -1.2120
vt -2.1922 1.5920
vt -1.5051 -1.2120
vt -1.8487 1.5920
vt -1.1616 -1.2120
vt -1.5051 1.5920
vt -0.8180 -1.2120
vt -1.1616 1.5920
vt 0.0788 1.8887
vt 0.5000 0.5000
vt 0.3578 1.9441
vt -0.4745 -1.2120
vt -0.8180 1.5920
vt -0.4745 1.5920
vt 0.5853 1.8367
vt 0.4147 1.9441
vt 0.4147 1.8367
vt -0.4206 1.6217
vt -0.6217 1.4206
vt -0.7798 1.1841
vt -0.9441 0.6422
vt -0.9441 0.3578
vt -0.8887 0.0788
vt -0.6217 -0.4206
vt -0.4206 -0.6217
vt -0.1841 -0.7798
vt 0.6422 1.9441
vt 1.1841 1.7798
vt 0.9212 1.8887
vt 1.6217 1.4206
vt 1.4206 1.6217
vt 1.8887 0.9212
vt 1.7798 1.1841
vt 1.9441 0.3578
vt 1.9441 0.6422
vt 1.7798 -0.1841
vt 1.8887 0.0788
vt 1.4206 -0.6217
vt 1.6217 -0.4206
vt 0.9212 -0.8887
vt 1.1841 -0.7798
vt 0.3578 -0.9441
vt 0.6422 -0.9441
vt 1.1841 1.7798
vt 0.6422 1.6217
vt 1.4206 1.6217
vt 0.6422 -0.7798
vt 0.3578 -0.9442
vt 0.6422 -0.9442
vt 0.3578 -0.7798
vt 0.0788 -0.8887
vt 0.6422 1.7798
vt 0.9212 1.8886
vt 0.6422 1.9441
vt 0.3578 1.7798
vt 0.0788 1.8886
vt -0.1841 1.7798
vt 0.3578 1.9441
vt 0.6422 -0.6217
vt 0.3578 -0.6217
vt 0.6422 -0.4206
vt 0.3578 -0.4206
vt 0.6422 -0.1841
vt 0.3578 -0.1841
vt 0.6422 0.0788
vt 0.3578 0.0788
vt 0.6422 0.3578
vt 0.3578 0.3578
vt 0.6422 0.6422
vt 0.3578 0.6422
vt 0.6422 0.9212
vt 0.3578 0.9212
vt 0.6422 1.1841
vt 0.3578 1.1841
vt 0.6422 1.4206
vt 0.3578 1.4206
vt 0.3578 1.6217
vt -0.1841 -0.7798
vt -0.4206 -0.6217
vt -0.6217 -0.4206
vt -0.7798 -0.1841
vt -0.8887 0.0788
vt -0.9441 0.3578
vt -0.9441 0.6422
vt -0.8887 0.9212
vt -0.7798 1.1841
vt -0.6217 1.4206
vt -0.4206 1.6217
vt 1.6217 1.4206
vt 1.7798 1.1841
vt 1.8887 0.9212
vt 1.9441 0.6422
vt 1.9441 0.3578
vt 1.8887 0.0788
vt 1.7798 -0.1841
vt 1.6217 -0.4206
vt 1.4206 -0.6217
vt 1.1841 -0.7798
vt 0.9212 -0.8887
vt 0.5853 1.9441
vt 0.3604 0.0824
vt 0.8086 2.3233
vt 0.7163 2.3233
vt 0.4527 0.5754
vt 0.7163 0.5306
vt 0.7163 0.0824
vt 0.9009 2.3233
vt 0.4527 0.0824
vt 5.3659 1.5920
vt -0.1841 1.7798
vt -0.8887 0.9212
vt -0.7798 -0.1841
vt 0.0788 -0.8887
vt 0.5136 0.2487
vt 0.5584 0.6566
vt 0.5136 0.6566
vt 0.5584 0.2487
vt 0.5136 0.6566
vt 0.5584 0.6566
vt 0.7163 0.2487
vt 0.8086 0.6566
vt 0.7163 0.6566
vt 0.5136 0.2487
vt -1.2343 0.6566
vt 0.5136 0.6566
vt 0.8086 0.6969
vt 0.7163 0.6566
vt 0.8086 0.6566
vt 0.5136 0.2487
vt 0.0654 0.6566
vt 0.5136 0.6566
vt 0.4527 0.6566
vt 0.3604 0.2487
vt 0.3604 0.6566
vt 0.5136 0.2487
vt 0.9618 0.6566
vt 0.5136 0.6566
vt 0.5584 0.2487
vt 2.3063 0.6566
vt 0.5584 0.6566
vt 0.8086 0.2487
vt 0.9009 0.6566
vt 0.8086 0.6566
vt 0.5584 0.2487
vt 0.5136 0.6566
vt 0.5584 0.6566
vt 0.8086 0.2487
vt 0.7163 0.6566
vt 0.8086 0.6566
vt 0.8086 0.6566
vt 0.9009 0.2487
vt 0.9009 0.6566
vt 0.8086 0.6969
vt 0.9009 0.6566
vt 0.8086 0.6566
vt 0.7163 2.3233
vt 0.8086 0.5754
vt 0.7163 0.5754
vt 0.8086 0.5754
vt 0.9009 2.3233
vt 0.9009 0.5754
vt 0.7163 0.5754
vt 0.4527 2.3233
vt 0.7163 2.3233
vt 0.8086 0.2487
vt 0.7163 0.6566
vt 0.8086 0.6566
vt 0.7163 0.2487
vt 0.4527 0.6566
vt 0.7163 0.6566
vt 0.7163 0.9788
vt 0.8086 0.5306
vt 0.7163 0.5306
vt 0.8086 0.5306
vt 0.9009 0.9788
vt 0.9009 0.5306
vt 0.7163 0.5306
vt 0.4527 0.0824
vt 0.4527 0.5306
vt 0.7163 0.6566
vt 0.4527 0.6969
vt 0.7163 0.6969
vt 0.8086 0.6566
vt 0.7163 0.6969
vt 0.8086 0.6969
vt 0.8086 1.1048
vt 0.9009 0.6969
vt 0.8086 0.6969
vt 0.8086 0.6969
vt 0.9009 0.6566
vt 0.9009 0.6969
vt 0.8086 0.6969
vt 0.7163 0.6566
vt 0.7163 0.6969
vt 0.4200 0.6616
vt 0.4530 0.6760
vt 0.4200 0.6760
vt 0.5584 0.6566
vt 2.3063 0.6969
vt 0.5584 0.6969
vt 0.5136 0.6566
vt 0.9618 0.6969
vt 0.5136 0.6969
vt 0.4527 0.6566
vt 0.3604 0.6969
vt 0.4527 0.6969
vt 0.5136 0.6566
vt 0.0654 0.6969
vt 0.5136 0.6969
vt 0.8086 1.1048
vt 0.7163 0.6969
vt 0.8086 0.6969
vt 0.5136 0.6566
vt -1.2343 0.6969
vt 0.5136 0.6969
vt 0.5470 0.6616
vt 0.5800 0.6760
vt 0.5470 0.6760
vt 0.5584 1.1048
vt 0.5136 0.6969
vt 0.5584 0.6969
vt 0.7163 0.5306
vt 0.4527 0.5754
vt 0.7163 0.5754
vt 0.7163 0.6969
vt 0.4527 0.6566
vt 0.4527 0.6969
vt 0.4527 0.6566
vt 0.7163 0.6969
vt 0.4527 0.6969
vt 0.4530 0.6760
vt 0.5470 0.6616
vt 0.5470 0.6760
vt 0.5470 0.6879
vt 0.4530 0.7039
vt 0.5470 0.7039
vt 5.4346 -0.8580
vt 5.4346 -1.2120
vt 5.7095 -1.2120
vt 5.6408 -0.8580
vt 5.6408 -1.2120
vt 0.5584 0.2487
vt 0.5136 0.2487
vt 0.8086 0.2487
vt -1.2343 0.2487
vt 0.7163 0.6969
vt 0.0654 0.2487
vt 0.4527 0.2487
vt 0.9618 0.2487
vt 2.3063 0.2487
vt 0.9009 0.2487
vt 0.5136 0.2487
vt 0.7163 0.2487
vt 0.8086 0.2487
vt 0.9009 0.6969
vt 0.8086 2.3233
vt 0.8086 2.3233
vt 0.4527 0.5754
vt 0.7163 0.2487
vt 0.4527 0.2487
vt 0.8086 0.9788
vt 0.8086 0.9788
vt 0.7163 0.0824
vt 0.4527 0.6566
vt 0.7163 0.6566
vt 0.9009 1.1048
vt 0.8086 0.6566
vt 0.8086 0.6566
vt 0.4530 0.6616
vt 2.3063 0.6566
vt 0.9618 0.6566
vt 0.3604 0.6566
vt 0.0654 0.6566
vt 0.7163 1.1048
vt -1.2343 0.6566
vt 0.5800 0.6616
vt 0.5136 1.1048
vt 0.4527 0.5306
vt 0.7163 0.6566
vt 0.7163 0.6566
vt 0.4530 0.6616
vt 0.4530 0.6879
vt 5.7095 1.5920
vn 0.0000 0.0000 1.0000
vn 0.0000 -1.0000 0.0000
vn -0.1951 -0.9808 0.0000
vn -0.3827 -0.9239 0.0000
vn -0.5556 -0.8315 0.0000
vn -0.7071 -0.7071 0.0000
vn -0.8315 -0.5556 0.0000
vn -0.9239 -0.3827 0.0000
vn -0.9808 -0.1951 0.0000
vn -1.0000 0.0000 0.0000
vn -0.9808 0.1951 0.0000
vn -0.9239 0.3827 0.0000
vn -0.8315 0.5556 0.0000
vn -0.7071 0.7071 0.0000
vn -0.5556 0.8315 0.0000
vn -0.3827 0.9239 0.0000
vn -0.1951 0.9808 0.0000
vn 0.1951 0.9808 0.0000
vn 0.3827 0.9239 0.0000
vn 0.5556 0.8315 0.0000
vn 0.7071 0.7071 0.0000
vn 0.8315 0.5556 0.0000
vn 0.9239 0.3827 0.0000
vn 0.9808 0.1951 0.0000
vn 1.0000 -0.0000 0.0000
vn 0.9808 -0.1951 0.0000
vn 0.9239 -0.3827 0.0000
vn 0.8315 -0.5556 0.0000
vn 0.7071 -0.7071 0.0000
vn 0.5556 -0.8315 0.0000
vn -0.0000 0.0000 -1.0000
vn 0.3827 -0.9239 0.0000
vn 0.1951 -0.9808 0.0000
vn 0.0000 1.0000 -0.0000
s off
f 158/1/1 198/2/1 154/3/1
f 166/4/1 186/5/1 191/6/1
f 190/7/1 161/8/1 145/9/1
f 174/10/1 163/11/1 189/12/1
f 156/13/1 192/14/1 13/15/1
f 265/16/1 152/17/1 150/18/1
f 144/19/1 164/20/1 148/21/1
f 14/22/1 286/23/1 26/24/1
f 295/25/2 297/26/2 294/27/2
f 298/28/3 296/29/3 295/25/3
f 300/30/4 299/31/4 298/28/4
f 302/32/5 301/33/5 300/30/5
f 304/34/6 303/35/6 302/32/6
f 306/36/7 305/37/7 304/34/7
f 308/38/8 307/39/8 306/36/8
f 310/40/9 309/41/9 308/38/9
f 312/42/10 311/43/10 310/40/10
f 314/44/11 313/45/11 312/42/11
f 316/46/12 315/47/12 314/44/12
f 318/48/13 317/49/13 316/46/13
f 320/50/14 319/51/14 318/48/14
f 322/52/15 321/53/15 320/50/15
f 324/54/16 323/55/16 322/52/16
f 326/56/17 325/57/17 324/54/17
f 330/58/18 328/59/18 329/60/18
f 332/61/19 331/62/19 330/58/19
f 334/63/20 333/64/20 332/61/20
f 336/65/21 335/66/21 334/63/21
f 338/67/22 337/68/22 336/65/22
f 340/69/23 339/70/23 338/67/23
f 342/71/24 341/72/24 340/69/24
f 344/73/25 343/74/25 342/71/25
f 346/75/26 345/76/26 344/73/26
f 348/77/27 347/78/27 346/75/27
f 350/79/28 349/80/28 348/77/28
f 352/81/29 351/82/29 350/79/29
f 354/83/30 353/84/30 352/81/30
f 58/85/31 117/86/31 56/87/31
f 356/88/32 355/89/32 354/83/32
f 294/27/33 357/90/33 356/88/33
f 143/91/1 8/92/1 120/93/1
f 117/86/31 62/94/31 64/95/31
f 66/96/31 117/86/31 64/95/31
f 117/86/31 70/97/31 72/98/31
f 74/99/31 117/86/31 72/98/31
f 117/86/31 78/100/31 80/101/31
f 82/102/31 117/86/31 80/101/31
f 117/86/31 54/103/31 56/87/31
f 117/86/31 114/104/31 116/105/31
f 117/86/31 110/106/31 112/107/31
f 117/86/31 106/108/31 108/109/31
f 117/86/31 102/110/31 104/111/31
f 117/86/31 98/112/31 100/113/31
f 117/86/31 94/114/31 96/115/31
f 117/86/31 90/116/31 92/117/31
f 117/86/31 86/118/31 88/119/31
f 91/120/1 132/121/1 93/122/1
f 142/123/1 55/124/1 53/125/1
f 121/126/1 57/127/1 55/124/1
f 118/128/1 89/129/1 87/130/1
f 119/131/1 83/132/1 81/133/1
f 85/134/1 120/93/1 8/92/1
f 143/91/1 119/131/1 118/128/1
f 121/126/1 141/135/1 122/136/1
f 122/136/1 140/137/1 123/138/1
f 123/138/1 139/139/1 124/140/1
f 124/140/1 138/141/1 125/142/1
f 125/142/1 137/143/1 126/144/1
f 126/144/1 136/145/1 127/146/1
f 127/146/1 135/147/1 128/148/1
f 128/148/1 134/149/1 129/150/1
f 129/150/1 133/151/1 130/152/1
f 130/152/1 132/121/1 131/153/1
f 132/121/1 119/131/1 131/153/1
f 59/154/1 122/136/1 61/155/1
f 61/155/1 123/138/1 63/156/1
f 63/156/1 124/140/1 65/157/1
f 65/157/1 125/142/1 67/158/1
f 67/158/1 126/144/1 69/159/1
f 126/144/1 71/160/1 69/159/1
f 127/146/1 73/161/1 71/160/1
f 128/148/1 75/162/1 73/161/1
f 129/150/1 77/163/1 75/162/1
f 130/152/1 79/164/1 77/163/1
f 131/153/1 81/133/1 79/164/1
f 93/122/1 133/151/1 95/165/1
f 95/165/1 134/149/1 97/166/1
f 97/166/1 135/147/1 99/167/1
f 99/167/1 136/145/1 101/168/1
f 136/145/1 103/169/1 101/168/1
f 137/143/1 105/170/1 103/169/1
f 138/141/1 107/171/1 105/170/1
f 139/139/1 109/172/1 107/171/1
f 140/137/1 111/173/1 109/172/1
f 141/135/1 113/174/1 111/173/1
f 142/123/1 115/175/1 113/174/1
f 143/91/1 87/130/1 9/176/1
f 158/1/1 213/177/1 198/2/1
f 166/4/1 168/178/1 186/5/1
f 190/7/1 187/179/1 161/8/1
f 174/10/1 178/180/1 163/11/1
f 156/13/1 263/181/1 192/14/1
f 265/16/1 285/182/1 152/17/1
f 144/19/1 160/183/1 164/20/1
f 14/22/1 199/184/1 286/23/1
f 295/25/2 296/29/2 297/26/2
f 298/28/3 299/31/3 296/29/3
f 300/30/4 301/33/4 299/31/4
f 302/32/5 303/35/5 301/33/5
f 304/34/6 305/37/6 303/35/6
f 306/36/7 307/39/7 305/37/7
f 308/38/8 309/41/8 307/39/8
f 310/40/9 311/43/9 309/41/9
f 312/42/10 313/45/10 311/43/10
f 314/44/11 315/47/11 313/45/11
f 316/46/12 317/49/12 315/47/12
f 318/48/13 319/51/13 317/49/13
f 320/50/14 321/53/14 319/51/14
f 322/52/15 323/55/15 321/53/15
f 324/54/16 325/57/16 323/55/16
f 326/56/17 327/185/17 325/57/17
f 330/58/18 331/62/18 328/59/18
f 332/61/19 333/64/19 331/62/19
f 334/63/20 335/66/20 333/64/20
f 336/65/21 337/68/21 335/66/21
f 338/67/22 339/70/22 337/68/22
f 340/69/23 341/72/23 339/70/23
f 342/71/24 343/74/24 341/72/24
f 344/73/25 345/76/25 343/74/25
f 346/75/26 347/78/26 345/76/26
f 348/77/27 349/80/27 347/78/27
f 350/79/28 351/82/28 349/80/28
f 352/81/29 353/84/29 351/82/29
f 354/83/30 355/89/30 353/84/30
f 58/85/31 60/186/31 117/86/31
f 356/88/32 357/90/32 355/89/32
f 294/27/33 297/26/33 357/90/33
f 143/91/1 9/176/1 8/92/1
f 117/86/31 60/186/31 62/94/31
f 66/96/31 68/187/31 117/86/31
f 117/86/31 68/187/31 70/97/31
f 74/99/31 76/188/31 117/86/31
f 117/86/31 76/188/31 78/100/31
f 82/102/31 84/189/31 117/86/31
f 117/86/31 116/105/31 54/103/31
f 117/86/31 112/107/31 114/104/31
f 117/86/31 108/109/31 110/106/31
f 117/86/31 104/111/31 106/108/31
f 117/86/31 100/113/31 102/110/31
f 117/86/31 96/115/31 98/112/31
f 117/86/31 92/117/31 94/114/31
f 117/86/31 88/119/31 90/116/31
f 117/86/31 84/189/31 86/118/31
f 91/120/1 118/128/1 132/121/1
f 142/123/1 121/126/1 55/124/1
f 121/126/1 59/154/1 57/127/1
f 118/128/1 91/120/1 89/129/1
f 119/131/1 85/134/1 83/132/1
f 85/134/1 119/131/1 120/93/1
f 143/91/1 120/93/1 119/131/1
f 121/126/1 142/123/1 141/135/1
f 122/136/1 141/135/1 140/137/1
f 123/138/1 140/137/1 139/139/1
f 124/140/1 139/139/1 138/141/1
f 125/142/1 138/141/1 137/143/1
f 126/144/1 137/143/1 136/145/1
f 127/146/1 136/145/1 135/147/1
f 128/148/1 135/147/1 134/149/1
f 129/150/1 134/149/1 133/151/1
f 130/152/1 133/151/1 132/121/1
f 132/121/1 118/128/1 119/131/1
f 59/154/1 121/126/1 122/136/1
f 61/155/1 122/136/1 123/138/1
f 63/156/1 123/138/1 124/140/1
f 65/157/1 124/140/1 125/142/1
f 67/158/1 125/142/1 126/144/1
f 126/144/1 127/146/1 71/160/1
f 127/146/1 128/148/1 73/161/1
f 128/148/1 129/150/1 75/162/1
f 129/150/1 130/152/1 77/163/1
f 130/152/1 131/153/1 79/164/1
f 131/153/1 119/131/1 81/133/1
f 93/122/1 132/121/1 133/151/1
f 95/165/1 133/151/1 134/149/1
f 97/166/1 134/149/1 135/147/1
f 99/167/1 135/147/1 136/145/1
f 136/145/1 137/143/1 103/169/1
f 137/143/1 138/141/1 105/170/1
f 138/141/1 139/139/1 107/171/1
f 139/139/1 140/137/1 109/172/1
f 140/137/1 141/135/1 111/173/1
f 141/135/1 142/123/1 113/174/1
f 142/123/1 53/125/1 115/175/1
f 143/91/1 118/128/1 87/130/1
f 155/190/25 194/191/25 278/192/25
f 172/193/10 205/194/10 170/195/10
f 12/196/2 235/197/2 207/198/2
f 7/199/10 238/200/10 237/201/10
f 226/202/2 275/203/2 242/204/2
f 151/205/10 244/206/10 241/207/10
f 292/208/34 212/209/34 209/210/34
f 19/211/25 247/212/25 211/213/25
f 149/214/25 253/215/25 250/216/25
f 6/217/2 201/218/2 255/219/2
f 193/220/10 274/221/10 270/222/10
f 2/223/34 272/224/34 240/225/34
f 249/226/2 157/227/2 280/228/2
f 259/229/34 195/230/34 251/231/34
f 180/232/31 233/233/31 183/234/31
f 258/235/31 260/236/31 269/237/31
f 184/238/31 261/239/31 181/240/31
f 4/241/34 289/242/34 246/243/34
f 33/244/34 293/245/34 290/246/34
f 221/247/31 217/248/31 214/249/31
f 227/250/31 223/251/31 283/252/31
f 219/253/31 282/254/31 222/255/31
f 288/256/34 284/257/34 216/258/34
f 245/259/34 32/260/34 218/261/34
f 252/262/34 147/263/34 1/264/34
f 230/265/2 279/266/2 224/267/2
f 234/268/34 271/269/34 185/270/34
f 254/271/2 262/272/2 257/273/2
f 46/274/25 20/275/25 24/276/25
f 210/277/25 22/278/25 228/279/25
f 52/280/34 18/281/34 34/282/34
f 43/283/10 17/284/10 21/285/10
f 243/286/2 266/287/2 3/288/2
f 236/289/10 23/290/10 232/291/10
f 206/292/2 25/293/2 182/294/2
f 175/295/25 16/296/25 177/297/25
f 276/298/31 196/299/31 273/300/31
f 28/301/34 37/302/34 31/303/34
f 50/304/2 29/305/2 30/306/2
f 11/307/2 208/308/2 10/309/2
f 39/310/31 176/311/31 171/312/31
f 35/313/34 326/56/34 173/314/34
f 329/315/34 36/316/34 179/317/34
f 36/316/34 327/185/34 35/313/34
f 155/190/25 146/318/25 194/191/25
f 172/193/10 188/319/10 205/194/10
f 12/196/2 169/320/2 235/197/2
f 7/199/10 167/321/10 238/200/10
f 226/202/2 220/322/2 275/203/2
f 151/205/10 153/323/10 244/206/10
f 292/208/34 200/324/34 212/209/34
f 19/211/25 159/325/25 247/212/25
f 149/214/25 165/326/25 253/215/25
f 6/217/2 162/327/2 201/218/2
f 193/220/10 264/328/10 274/221/10
f 2/223/34 27/329/34 272/224/34
f 249/226/2 5/330/2 157/227/2
f 259/229/34 268/331/34 195/230/34
f 180/232/31 231/332/31 233/233/31
f 258/235/31 256/333/31 260/236/31
f 184/238/31 267/334/31 261/239/31
f 4/241/34 287/335/34 289/242/34
f 33/244/34 15/336/34 293/245/34
f 221/247/31 225/337/31 217/248/31
f 227/250/31 229/338/31 223/251/31
f 219/253/31 215/339/31 282/254/31
f 288/256/34 291/340/34 284/257/34
f 245/259/34 51/341/34 32/260/34
f 252/262/34 197/342/34 147/263/34
f 230/265/2 248/343/2 279/266/2
f 234/268/34 239/344/34 271/269/34
f 254/271/2 202/345/2 262/272/2
f 46/274/25 47/346/25 20/275/25
f 210/277/25 45/347/25 22/278/25
f 52/280/34 40/348/34 18/281/34
f 43/283/10 44/349/10 17/284/10
f 243/286/2 49/350/2 266/287/2
f 236/289/10 42/351/10 23/290/10
f 206/292/2 41/352/2 25/293/2
f 175/295/25 203/353/25 16/296/25
f 276/298/31 281/354/31 196/299/31
f 28/301/34 48/355/34 37/302/34
f 50/304/2 277/356/2 29/305/2
f 11/307/2 204/357/2 208/308/2
f 39/310/31 38/358/31 176/311/31
f 35/313/34 327/185/34 326/56/34
f 329/315/34 328/359/34 36/316/34
f 36/316/34 328/359/34 327/185/34
